<?xml version="1.0" encoding="UTF-8"?>
<UndoHistory>
  <UndoTransaction tv-sec="1696031321" tv-usec="874896" name="capture">
    <StatefulDiffCommand obj-id="26686" type-name="ARDOUR::AudioPlaylist">
      <Changes>
        <Regions>
          <Add id="28493"/>
          <Add id="28506"/>
        </Regions>
      </Changes>
    </StatefulDiffCommand>
  </UndoTransaction>
  <UndoTransaction tv-sec="1696031354" tv-usec="326025" name="delete objects">
    <StatefulDiffCommand obj-id="28506" type-name="ARDOUR::AudioRegion">
      <Changes>
        <layering-index from="2" to="1"/>
      </Changes>
    </StatefulDiffCommand>
    <StatefulDiffCommand obj-id="26686" type-name="ARDOUR::AudioPlaylist">
      <Changes>
        <Regions>
          <Remove id="28493"/>
        </Regions>
      </Changes>
    </StatefulDiffCommand>
    <MementoCommand obj-id="46" type-name="SelectionMemento">
      <SelectionMemento mouse-mode="MouseObject" zoom="1536" left-frame="0" y-origin="196">
        <Selection>
          <Regions>
            <Region id="28493"/>
          </Regions>
          <Marker id="1946" start="0"/>
        </Selection>
      </SelectionMemento>
      <SelectionMemento mouse-mode="MouseObject" zoom="1536" left-frame="0" y-origin="196">
        <Selection>
          <Marker id="1946" start="0"/>
        </Selection>
      </SelectionMemento>
    </MementoCommand>
  </UndoTransaction>
  <UndoTransaction tv-sec="1696031433" tv-usec="176215" name="capture">
    <StatefulDiffCommand obj-id="26686" type-name="ARDOUR::AudioPlaylist">
      <Changes>
        <Regions>
          <Add id="28594"/>
        </Regions>
      </Changes>
    </StatefulDiffCommand>
  </UndoTransaction>
  <UndoTransaction tv-sec="1696031436" tv-usec="89933" name="delete objects">
    <StatefulDiffCommand obj-id="26686" type-name="ARDOUR::AudioPlaylist">
      <Changes>
        <Regions>
          <Remove id="28594"/>
        </Regions>
      </Changes>
    </StatefulDiffCommand>
    <MementoCommand obj-id="46" type-name="SelectionMemento">
      <SelectionMemento mouse-mode="MouseObject" zoom="1536" left-frame="0" y-origin="196">
        <Selection>
          <Regions>
            <Region id="28594"/>
          </Regions>
          <Marker id="1946" start="0"/>
        </Selection>
      </SelectionMemento>
      <SelectionMemento mouse-mode="MouseObject" zoom="1536" left-frame="0" y-origin="196">
        <Selection>
          <Marker id="1946" start="0"/>
        </Selection>
      </SelectionMemento>
    </MementoCommand>
  </UndoTransaction>
  <UndoTransaction tv-sec="1696031493" tv-usec="427863" name="capture">
    <StatefulDiffCommand obj-id="26686" type-name="ARDOUR::AudioPlaylist">
      <Changes>
        <Regions>
          <Add id="28675"/>
        </Regions>
      </Changes>
    </StatefulDiffCommand>
  </UndoTransaction>
  <UndoTransaction tv-sec="1696031495" tv-usec="209117" name="delete objects">
    <StatefulDiffCommand obj-id="26686" type-name="ARDOUR::AudioPlaylist">
      <Changes>
        <Regions>
          <Remove id="28675"/>
        </Regions>
      </Changes>
    </StatefulDiffCommand>
    <MementoCommand obj-id="46" type-name="SelectionMemento">
      <SelectionMemento mouse-mode="MouseObject" zoom="1536" left-frame="0" y-origin="196">
        <Selection>
          <Regions>
            <Region id="28675"/>
          </Regions>
          <Marker id="1946" start="0"/>
        </Selection>
      </SelectionMemento>
      <SelectionMemento mouse-mode="MouseObject" zoom="1536" left-frame="0" y-origin="196">
        <Selection>
          <Marker id="1946" start="0"/>
        </Selection>
      </SelectionMemento>
    </MementoCommand>
  </UndoTransaction>
  <UndoTransaction tv-sec="1696031535" tv-usec="918385" name="capture">
    <StatefulDiffCommand obj-id="26686" type-name="ARDOUR::AudioPlaylist">
      <Changes>
        <Regions>
          <Add id="28756"/>
        </Regions>
      </Changes>
    </StatefulDiffCommand>
  </UndoTransaction>
  <UndoTransaction tv-sec="1696031539" tv-usec="795660" name="delete objects">
    <StatefulDiffCommand obj-id="26686" type-name="ARDOUR::AudioPlaylist">
      <Changes>
        <Regions>
          <Remove id="28756"/>
        </Regions>
      </Changes>
    </StatefulDiffCommand>
    <MementoCommand obj-id="46" type-name="SelectionMemento">
      <SelectionMemento mouse-mode="MouseObject" zoom="1536" left-frame="0" y-origin="196">
        <Selection>
          <Regions>
            <Region id="28756"/>
          </Regions>
          <Marker id="1946" start="0"/>
        </Selection>
      </SelectionMemento>
      <SelectionMemento mouse-mode="MouseObject" zoom="1536" left-frame="0" y-origin="196">
        <Selection>
          <Marker id="1946" start="0"/>
        </Selection>
      </SelectionMemento>
    </MementoCommand>
  </UndoTransaction>
  <UndoTransaction tv-sec="1696031608" tv-usec="78606" name="capture">
    <StatefulDiffCommand obj-id="26686" type-name="ARDOUR::AudioPlaylist">
      <Changes>
        <Regions>
          <Add id="28837"/>
        </Regions>
      </Changes>
    </StatefulDiffCommand>
  </UndoTransaction>
  <UndoTransaction tv-sec="1696031608" tv-usec="607587" name="region drag">
    <StatefulDiffCommand obj-id="28837" type-name="ARDOUR::AudioRegion">
      <Changes/>
    </StatefulDiffCommand>
    <MementoCommand obj-id="46" type-name="SelectionMemento">
      <SelectionMemento mouse-mode="MouseObject" zoom="1536" left-frame="0" y-origin="196">
        <Selection>
          <Regions>
            <Region id="28837"/>
          </Regions>
          <Marker id="1946" start="0"/>
        </Selection>
      </SelectionMemento>
      <SelectionMemento mouse-mode="MouseObject" zoom="1536" left-frame="0" y-origin="196">
        <Selection>
          <Regions>
            <Region id="28837"/>
          </Regions>
          <Marker id="1946" start="0"/>
        </Selection>
      </SelectionMemento>
    </MementoCommand>
  </UndoTransaction>
  <UndoTransaction tv-sec="1696031609" tv-usec="283437" name="delete objects">
    <StatefulDiffCommand obj-id="26686" type-name="ARDOUR::AudioPlaylist">
      <Changes>
        <Regions>
          <Remove id="28837"/>
        </Regions>
      </Changes>
    </StatefulDiffCommand>
    <MementoCommand obj-id="46" type-name="SelectionMemento">
      <SelectionMemento mouse-mode="MouseObject" zoom="1536" left-frame="0" y-origin="196">
        <Selection>
          <Regions>
            <Region id="28837"/>
          </Regions>
          <Marker id="1946" start="0"/>
        </Selection>
      </SelectionMemento>
      <SelectionMemento mouse-mode="MouseObject" zoom="1536" left-frame="0" y-origin="196">
        <Selection>
          <Marker id="1946" start="0"/>
        </Selection>
      </SelectionMemento>
    </MementoCommand>
  </UndoTransaction>
  <UndoTransaction tv-sec="1696031679" tv-usec="279082" name="capture">
    <StatefulDiffCommand obj-id="26686" type-name="ARDOUR::AudioPlaylist">
      <Changes>
        <Regions>
          <Add id="28927"/>
        </Regions>
      </Changes>
    </StatefulDiffCommand>
  </UndoTransaction>
  <UndoTransaction tv-sec="1696031749" tv-usec="522255" name="region drag">
    <StatefulDiffCommand obj-id="28927" type-name="ARDOUR::AudioRegion">
      <Changes>
        <position from="0" to="6211584"/>
        <beat from="0" to="138.0352"/>
      </Changes>
    </StatefulDiffCommand>
    <MementoCommand obj-id="46" type-name="SelectionMemento">
      <SelectionMemento mouse-mode="MouseObject" zoom="6144" left-frame="0" y-origin="196">
        <Selection>
          <Regions>
            <Region id="28927"/>
          </Regions>
          <Marker id="1946" start="0"/>
        </Selection>
      </SelectionMemento>
      <SelectionMemento mouse-mode="MouseObject" zoom="6144" left-frame="0" y-origin="196">
        <Selection>
          <Regions>
            <Region id="28927"/>
          </Regions>
          <Marker id="1946" start="0"/>
        </Selection>
      </SelectionMemento>
    </MementoCommand>
  </UndoTransaction>
  <UndoTransaction tv-sec="1696031821" tv-usec="328409" name="capture">
    <StatefulDiffCommand obj-id="26686" type-name="ARDOUR::AudioPlaylist">
      <Changes>
        <Regions>
          <Add id="29002"/>
        </Regions>
      </Changes>
    </StatefulDiffCommand>
  </UndoTransaction>
  <UndoTransaction tv-sec="1696031856" tv-usec="689680" name="region drag">
    <StatefulDiffCommand obj-id="29002" type-name="ARDOUR::AudioRegion">
      <Changes>
        <position from="0" to="9684480"/>
        <beat from="0" to="215.21066666666667"/>
      </Changes>
    </StatefulDiffCommand>
    <MementoCommand obj-id="46" type-name="SelectionMemento">
      <SelectionMemento mouse-mode="MouseObject" zoom="3072" left-frame="1250304" y-origin="196">
        <Selection>
          <Regions>
            <Region id="29002"/>
          </Regions>
          <Marker id="1946" start="0"/>
        </Selection>
      </SelectionMemento>
      <SelectionMemento mouse-mode="MouseObject" zoom="3072" left-frame="4750848" y-origin="196">
        <Selection>
          <Regions>
            <Region id="29002"/>
          </Regions>
          <Marker id="1946" start="0"/>
        </Selection>
      </SelectionMemento>
    </MementoCommand>
  </UndoTransaction>
  <UndoTransaction tv-sec="1696031925" tv-usec="211158" name="capture">
    <StatefulDiffCommand obj-id="26686" type-name="ARDOUR::AudioPlaylist">
      <Changes>
        <Regions>
          <Add id="29077"/>
        </Regions>
      </Changes>
    </StatefulDiffCommand>
  </UndoTransaction>
  <UndoTransaction tv-sec="1696031985" tv-usec="128558" name="region drag">
    <StatefulDiffCommand obj-id="29077" type-name="ARDOUR::AudioRegion">
      <Changes>
        <position from="156928" to="163072"/>
        <beat from="3.4872888888888891" to="3.6238222222222225"/>
      </Changes>
    </StatefulDiffCommand>
    <MementoCommand obj-id="46" type-name="SelectionMemento">
      <SelectionMemento mouse-mode="MouseObject" zoom="3072" left-frame="0" y-origin="196">
        <Selection>
          <Regions>
            <Region id="29077"/>
          </Regions>
          <Marker id="1946" start="0"/>
        </Selection>
      </SelectionMemento>
      <SelectionMemento mouse-mode="MouseObject" zoom="3072" left-frame="0" y-origin="196">
        <Selection>
          <Regions>
            <Region id="29077"/>
          </Regions>
          <Marker id="1946" start="0"/>
        </Selection>
      </SelectionMemento>
    </MementoCommand>
  </UndoTransaction>
  <UndoTransaction tv-sec="1696031987" tv-usec="759164" name="region drag">
    <StatefulDiffCommand obj-id="29077" type-name="ARDOUR::AudioRegion">
      <Changes>
        <position from="163072" to="12985600"/>
        <beat from="3.6238222222222225" to="288.56888888888886"/>
      </Changes>
    </StatefulDiffCommand>
    <MementoCommand obj-id="46" type-name="SelectionMemento">
      <SelectionMemento mouse-mode="MouseObject" zoom="6144" left-frame="0" y-origin="196">
        <Selection>
          <Regions>
            <Region id="29077"/>
          </Regions>
          <Marker id="1946" start="0"/>
        </Selection>
      </SelectionMemento>
      <SelectionMemento mouse-mode="MouseObject" zoom="6144" left-frame="0" y-origin="196">
        <Selection>
          <Regions>
            <Region id="29077"/>
          </Regions>
          <Marker id="1946" start="0"/>
        </Selection>
      </SelectionMemento>
    </MementoCommand>
  </UndoTransaction>
  <UndoTransaction tv-sec="1696032057" tv-usec="884501" name="capture">
    <StatefulDiffCommand obj-id="26686" type-name="ARDOUR::AudioPlaylist">
      <Changes>
        <Regions>
          <Add id="29161"/>
        </Regions>
      </Changes>
    </StatefulDiffCommand>
  </UndoTransaction>
  <UndoTransaction tv-sec="1696032075" tv-usec="777820" name="region drag">
    <StatefulDiffCommand obj-id="26686" type-name="ARDOUR::AudioPlaylist">
      <Changes>
        <Regions>
          <Remove id="29161"/>
        </Regions>
      </Changes>
    </StatefulDiffCommand>
    <StatefulDiffCommand obj-id="29258" type-name="ARDOUR::AudioPlaylist">
      <Changes>
        <Regions>
          <Add id="29279"/>
        </Regions>
      </Changes>
    </StatefulDiffCommand>
    <MementoCommand obj-id="46" type-name="SelectionMemento">
      <SelectionMemento mouse-mode="MouseObject" zoom="5962" left-frame="0" y-origin="196">
        <Selection>
          <Regions>
            <Region id="29161"/>
          </Regions>
          <Marker id="1946" start="0"/>
        </Selection>
      </SelectionMemento>
      <SelectionMemento mouse-mode="MouseObject" zoom="5962" left-frame="0" y-origin="196">
        <Selection>
          <Regions>
            <Region id="29279"/>
          </Regions>
          <Marker id="1946" start="0"/>
        </Selection>
      </SelectionMemento>
    </MementoCommand>
  </UndoTransaction>
</UndoHistory>
